{
    "KPlugin": {
        "Authors": [
            {
                "Email": "aleixpol@kde.org",
                "Name": "Aleix Pol",
                "Name[ar]": "Aleix Pol",
                "Name[az]": "Aleix Pol",
                "Name[ca@valencia]": "Aleix Pol",
                "Name[ca]": "Aleix Pol",
                "Name[cs]": "Aleix Pol",
                "Name[de]": "Aleix Pol",
                "Name[el]": "Aleix Pol",
                "Name[en_GB]": "Aleix Pol",
                "Name[eo]": "Aleix Pol",
                "Name[es]": "Aleix Pol",
                "Name[et]": "Aleix Pol",
                "Name[eu]": "Aleix Pol",
                "Name[fi]": "Aleix Pol",
                "Name[fr]": "Aleix Pol",
                "Name[gl]": "Aleix Pol",
                "Name[it]": "Aleix Pol",
                "Name[ka]": "ალის პოლი",
                "Name[ko]": "Aleix Pol",
                "Name[nl]": "Aleix Pol",
                "Name[nn]": "Aleix Pol",
                "Name[pl]": "Aleix Pol",
                "Name[pt]": "Aleix Pol",
                "Name[pt_BR]": "Aleix Pol",
                "Name[ru]": "Aleix Pol Gonzalez",
                "Name[sk]": "Aleix Pol",
                "Name[sl]": "Aleix Pol",
                "Name[sv]": "Aleix Pol",
                "Name[tr]": "Aleix Pol",
                "Name[uk]": "Aleix Pol",
                "Name[x-test]": "xxAleix Polxx",
                "Name[zh_CN]": "Aleix Pol"
            }
        ],
        "Category": "Runtimes",
        "Description": "Exposes Docker runtimes",
        "Description[az]": "Docker işləmə vaxtlarını göstərir",
        "Description[ca@valencia]": "Exposa el temps d'execució del Docker",
        "Description[ca]": "Exposa el temps d'execució del Docker",
        "Description[de]": "Stellt Docker-Laufzeitumgebungen bereit",
        "Description[el]": "Εμφανίζει εκτελέσεις του docker",
        "Description[en_GB]": "Exposes Docker runtimes",
        "Description[eo]": "Eksponas Docker rultempoj",
        "Description[es]": "Expone bibliotecas en tiempo de ejecución de Docker",
        "Description[et]": "Dockeri käitusaegade näitamine",
        "Description[eu]": "Dockerren exekuzio-denborak erakusten ditu",
        "Description[fr]": "Expose les exécutifs Docker",
        "Description[gl]": "Expón os executábeis de Docker.",
        "Description[it]": "Espone i runtime di Docker",
        "Description[ko]": "Docker 런타임 표시",
        "Description[nl]": "Toont Docker runtimes",
        "Description[pl]": "Udostępnia biblioteki uruchomieniowe Dockera",
        "Description[pt]": "Expõe as bibliotecas do Docker",
        "Description[pt_BR]": "Expõe as bibliotecas do Docker",
        "Description[ru]": "Предоставляет доступ к средам выполнения Docker",
        "Description[sk]": "Vystavuje Docker runtimes",
        "Description[sl]": "Izpostavi izvajalne knjižnice za Docker",
        "Description[sv]": "Exponerar Docker-körtidsprogram",
        "Description[tr]": "Docker çalışma zamanlarını açığa çıkarır",
        "Description[uk]": "Надає доступ до середовищ виконання Docker",
        "Description[x-test]": "xxExposes Docker runtimesxx",
        "Description[zh_CN]": "暴露 Docker 运行时",
        "Icon": "kdevelop",
        "Id": "kdevdocker",
        "License": "GPL",
        "Name": "Docker Support",
        "Name[az]": "Docker dəstəyi",
        "Name[ca@valencia]": "Implementació del Docker",
        "Name[ca]": "Implementació del Docker",
        "Name[cs]": "Podpora Dockeru",
        "Name[de]": "Docker-Unterstützung",
        "Name[el]": "Υποστήριξη docker",
        "Name[en_GB]": "Docker Support",
        "Name[eo]": "Docker Subteno",
        "Name[es]": "Implementación de Docker",
        "Name[et]": "Dockeri toetus",
        "Name[eu]": "Zamaketari euskarria",
        "Name[fi]": "Docker-tuki",
        "Name[fr]": "Prise en charge de Docker",
        "Name[gl]": "Integración de Docker",
        "Name[it]": "Supporto per Docker",
        "Name[ka]": "Docker-ის მხარდაჭერა",
        "Name[ko]": "Docker 지원",
        "Name[nl]": "Ondersteuning van Docker",
        "Name[pl]": "Obsługa Docker",
        "Name[pt]": "Suporte para o Docker",
        "Name[pt_BR]": "Suporte ao Docker",
        "Name[ru]": "Поддержка Docker",
        "Name[sk]": "Podpora Docker",
        "Name[sl]": "Podpora za Docker",
        "Name[sv]": "Docker-stöd",
        "Name[tr]": "Docker Desteği",
        "Name[uk]": "Підтримка Docker",
        "Name[x-test]": "xxDocker Supportxx",
        "Name[zh_CN]": "Docker 支持",
        "Version": "0.1"
    },
    "X-KDevelop-Category": "Global",
    "X-KDevelop-Mode": "NoGUI"
}
